<?xml version="1.0" encoding="UTF-8" standalone="yes"?>
<!DOCTYPE svg PUBLIC "-//W3C//DTD SVG 1.1//EN"
  "http://www.w3.org/Graphics/SVG/1.1/DTD/svg11.dtd">

<svg version="1.1"
     xmlns="http://www.w3.org/2000/svg"
     xmlns:xlink="http://www.w3.org/1999/xlink"
     width="1.5cm" height="1.5cm"
     viewBox="0 0 100 100">

<rect x="0" y="0" width="100" height="100" stroke="none" fill="black" />
<rect x="10" y="10" width="80" height="80" stroke="white" stroke-width="2" fill="black" />
<rect x="10" y="10" width="80" height="20" stroke="white" stroke-width="2" fill="#808080" />
</svg>
