<?xml version="1.0" encoding="UTF-8" standalone="yes"?>
<!DOCTYPE svg PUBLIC "-//W3C//DTD SVG 1.1//EN"
  "http://www.w3.org/Graphics/SVG/1.1/DTD/svg11.dtd">

<svg version="1.1"
     xmlns="http://www.w3.org/2000/svg"
     xmlns:xlink="http://www.w3.org/1999/xlink"
     width="1.5cm" height="1.5cm"
     viewBox="0 0 100 100">

<path d="M 10,20 L 20,10 L 40,10 L 50,20 L 90,20 L 90,90 L 10,90 z"
      stroke="white" fill="#3399ff" stroke-width="2" />
</svg>
