<?xml version="1.0" encoding="UTF-8" standalone="yes"?>
<!DOCTYPE svg PUBLIC "-//W3C//DTD SVG 1.1//EN"
  "http://www.w3.org/Graphics/SVG/1.1/DTD/svg11.dtd">

<svg version="1.1"
     xmlns="http://www.w3.org/2000/svg"
     xmlns:xlink="http://www.w3.org/1999/xlink"
     width="1.5cm" height="1.5cm"
     viewBox="0 0 100 100">

<g transform="translate(0,30)">
<path d="M 20,0 L 5,10 L 5,20 L 5,25 L 10,30 L 25,30 L 35,20 L 65,20 L 75,30
         L 90,30 L 95,25 L 95,20 L 95,10 L 80,0 L 20,0" stroke="white" fill="blue" />
</g>

<g transform="translate(0,55)">
<path d="M 35,0 L 65,0 L 85,40 L 15,40 Z" stroke="white" fill="blue" />
</g>

</svg>
