<?xml version="1.0" encoding="UTF-8" standalone="yes"?>
<!DOCTYPE svg PUBLIC "-//W3C//DTD SVG 1.1//EN"
  "http://www.w3.org/Graphics/SVG/1.1/DTD/svg11.dtd">

<svg version="1.1"
     xmlns="http://www.w3.org/2000/svg"
     xmlns:xlink="http://www.w3.org/1999/xlink"
     width="1.5cm" height="1.5cm"
     viewBox="0 0 100 100">

<circle cx="50" cy="45" r="20" stroke="#77aaff" fill="none" stroke-width="2" />
<circle cx="50" cy="45" r="30" stroke="#5577dd" fill="none" stroke-width="2" />
<circle cx="50" cy="45" r="10" stroke="#5577dd" fill="none" stroke-width="2" />
<path d="M 50,45 L 60,95 L 40,95 Z" stroke="#5577dd" fill="none" stroke-width="2" />
<circle cx="50" cy="45" r="10" stroke="none" fill="white" />
<path d="M 50,45 L 60,95 L 40,95 Z" stroke="none" fill="white" />
</svg>
