<?xml version="1.0" encoding="UTF-8" standalone="yes"?>
<!DOCTYPE svg PUBLIC "-//W3C//DTD SVG 1.1//EN"
  "http://www.w3.org/Graphics/SVG/1.1/DTD/svg11.dtd">

<svg version="1.1"
     xmlns="http://www.w3.org/2000/svg"
     xmlns:xlink="http://www.w3.org/1999/xlink"
     width="1.5cm" height="1.5cm"
     viewBox="0 0 100 100">

<path d="M 30,30 L 90,90" stroke="white" fill="none" stroke-width="1" />
<circle cx="30" cy="30" r="25" stroke="white" fill="#3399ff" stroke-width="2" />
<circle cx="67.5" cy="67.5" r="15" stroke="white" fill="#aaaa77" stroke-width="2" />
<circle cx="90" cy="90" r="5" stroke="white" fill="#aa7722" stroke-width="2" />

</svg>
