<?xml version="1.0" encoding="UTF-8" standalone="yes"?>
<!DOCTYPE svg PUBLIC "-//W3C//DTD SVG 1.1//EN"
  "http://www.w3.org/Graphics/SVG/1.1/DTD/svg11.dtd">

<svg version="1.1"
     xmlns="http://www.w3.org/2000/svg"
     xmlns:xlink="http://www.w3.org/1999/xlink"
     width="1.5cm" height="1.5cm"
     viewBox="0 0 100 100">

<circle cx="40" cy="60" r="35" stroke="white" fill="#eeee77" stroke-width="2" />
<circle cx="40" cy="60" r="25" stroke="white" fill="#cc5511" stroke-width="2" />
</svg>
